Date,Campaign,Ad,WherePlaced,Story,Type,Site (DCM),Placement,Ad Type,Creative,Click-through URL,Clicks,Impressions,Click Rate,Active View: Viewable Impressions,Active View: Measurable Impressions,Active View: Eligible Impressions
10/20/2017,USM_FY18,160x600,DBM,Lauren,,doubleclick.com/bidmanager,USMFY18_DBM_160x600,Standard,Lauren_160x600,(not set),1,2300,0.04,1352,2237,2299
10/20/2017,USM_FY18,160x600,DBM,Nate,,doubleclick.com/bidmanager,USMFY18_DBM_160x600,Standard,Nate_160x600,(not set),0,2227,0,1313,2158,2227
10/20/2017,USM_FY18,160x600,DBM,Veronica,,doubleclick.com/bidmanager,USMFY18_DBM_160x600,Standard,Veronica_160x600,(not set),0,2294,0,1353,2219,2294
10/20/2017,USM_FY18,300x250 Default Web Ad,,,,Pandora,USMFY18_Pandora_300x250_Lauren,Default,USM-FY18_Nate_300x250_static,(not set),5,571,0.88,0,0,0
10/20/2017,USM_FY18,300x250,BDN,Lauren,,Bangor Daily News,USMFY18_BDN_300x250,Standard,Lauren_300x250,(not set),1,914,0.11,273,676,686
10/20/2017,USM_FY18,300x250,BDN,Nate,,Bangor Daily News,USMFY18_BDN_300x250,Standard,Nate_300x250,(not set),0,967,0,300,717,724
10/20/2017,USM_FY18,300x250,BDN,Veronica,,Bangor Daily News,USMFY18_BDN_300x250,Standard,Veronica_300x250,(not set),0,910,0,274,690,696
10/20/2017,USM_FY18,300x250,DBM,Lauren,,doubleclick.com/bidmanager,USMFY18_DBM_300x250,Standard,Lauren_300x250,(not set),7,9784,0.07,6656,9508,9779
10/20/2017,USM_FY18,300x250,DBM,Nate,,doubleclick.com/bidmanager,USMFY18_DBM_300x250,Standard,Nate_300x250,(not set),1,9659,0.01,6519,9381,9657
10/20/2017,USM_FY18,300x250,DBM,Veronica,,doubleclick.com/bidmanager,USMFY18_DBM_300x250,Standard,Veronica_300x250,(not set),3,9839,0.03,6602,9523,9831
10/20/2017,USM_FY18,300x250,MaineToday,Lauren,,Mainetoday.com - Portland Press Herald,USMFY18_MaineToday_300x250,Standard,Lauren_300x250,(not set),0,7,0,4,7,7
10/20/2017,USM_FY18,300x250,MaineToday,Nate,,Mainetoday.com - Portland Press Herald,USMFY18_MaineToday_300x250,Standard,Nate_300x250,(not set),0,10,0,9,10,10
10/20/2017,USM_FY18,300x250,MaineToday,Veronica,,Mainetoday.com - Portland Press Herald,USMFY18_MaineToday_300x250,Standard,Veronica_300x250,(not set),0,7,0,6,7,7
10/20/2017,USM_FY18,300x250,Pandora,Nate,,Pandora,USMFY18_Pandora_300x250_Nate,Standard,Nate_300x250,(not set),0,670,0,0,0,0
10/20/2017,USM_FY18,300x250,Pandora,Veronica,,Pandora,USMFY18_Pandora_300x250_Veronica,Standard,Veronica_300x250,(not set),0,706,0,0,0,0
10/20/2017,USM_FY18,300x250,SJ,Lauren,,Sunjournal.com,USMFY18_SJ_300x250,Standard,Lauren_300x250,(not set),2,763,0.26,349,644,763
10/20/2017,USM_FY18,300x250,SJ,Nate,,Sunjournal.com,USMFY18_SJ_300x250,Standard,Nate_300x250,(not set),1,756,0.13,319,620,756
10/20/2017,USM_FY18,300x250,SJ,Veronica,,Sunjournal.com,USMFY18_SJ_300x250,Standard,Veronica_300x250,(not set),2,724,0.28,325,609,724
10/20/2017,USM_FY18,300x600,BDN,Lauren,,Bangor Daily News,USMFY18_BDN_300x600,Standard,Lauren_300x600,(not set),0,9,0,6,9,9
10/20/2017,USM_FY18,300x600,BDN,Nate,,Bangor Daily News,USMFY18_BDN_300x600,Standard,USM-FY18_Nate_300x600_static,(not set),0,14,0,8,14,14
10/20/2017,USM_FY18,300x600,BDN,Veronica,,Bangor Daily News,USMFY18_BDN_300x600,Standard,Veronica_300x600,(not set),0,11,0,8,11,11
10/20/2017,USM_FY18,300x600,DBM,Lauren,,doubleclick.com/bidmanager,USMFY18_DBM_300x600,Standard,Lauren_300x600,(not set),0,723,0,415,712,723
10/20/2017,USM_FY18,300x600,DBM,Nate,,doubleclick.com/bidmanager,USMFY18_DBM_300x600,Standard,USM-FY18_Nate_300x600_static,(not set),2,786,0.25,516,777,786
10/20/2017,USM_FY18,300x600,DBM,Veronica,,doubleclick.com/bidmanager,USMFY18_DBM_300x600,Standard,Veronica_300x600,(not set),0,755,0,475,749,755
10/20/2017,USM_FY18,300x600,MaineToday,Lauren,,Mainetoday.com - Portland Press Herald,USMFY18_MaineToday_300x600,Standard,Lauren_300x600,(not set),0,28,0,17,28,28
10/20/2017,USM_FY18,300x600,MaineToday,Nate,,Mainetoday.com - Portland Press Herald,USMFY18_MaineToday_300x600,Standard,USM-FY18_Nate_300x600_static,(not set),0,19,0,13,19,19
10/20/2017,USM_FY18,300x600,MaineToday,Veronica,,Mainetoday.com - Portland Press Herald,USMFY18_MaineToday_300x600,Standard,Veronica_300x600,(not set),0,19,0,10,19,19
10/20/2017,USM_FY18,320x50,DBM,Veronica,,doubleclick.com/bidmanager,USMFY18_DBM_320x50,Standard,USM-FY18_Veronica_320x50_static,(not set),7,14252,0.05,10005,13800,14205
10/20/2017,USM_FY18,320x50,MaineToday,Veronica,,Mainetoday.com - Portland Press Herald,USMFY18_MaineToday_320x50,Standard,USM-FY18_Veronica_320x50_static,(not set),0,1311,0,685,1308,1311
10/20/2017,USM_FY18,640x640,Spotify,Nate,Tracker,Spotify,USMFY18_Spotify_640x640_Tracking,Tracking,640x640_Spotify_Tracker_Nate,http://usm.maine.edu/welcome,14,14813,0.09,0,0,0
10/20/2017,USM_FY18,728x90,DBM,Lauren,,doubleclick.com/bidmanager,USMFY18_DBM_728x90,Standard,Lauren_728x90,(not set),1,5057,0.02,3104,4979,5054
10/20/2017,USM_FY18,728x90,DBM,Nate,,doubleclick.com/bidmanager,USMFY18_DBM_728x90,Standard,Nate_728x90,(not set),4,5009,0.08,3013,4935,5007
10/20/2017,USM_FY18,728x90,DBM,Veronica,,doubleclick.com/bidmanager,USMFY18_DBM_728x90,Standard,Veronica_728x90,(not set),0,5025,0,3074,4965,5024
10/20/2017,USM_FY18,728x90,SJ,Lauren,,Sunjournal.com,USMFY18_SJ_728x90,Standard,Lauren_728x90,(not set),2,938,0.21,227,839,938
10/20/2017,USM_FY18,728x90,SJ,Nate,,Sunjournal.com,USMFY18_SJ_728x90,Standard,Nate_728x90,(not set),3,915,0.33,210,813,915
10/20/2017,USM_FY18,728x90,SJ,Veronica,,Sunjournal.com,USMFY18_SJ_728x90,Standard,Veronica_728x90,(not set),0,957,0,228,857,957
10/20/2017,USM_FY18,970x90,BDN,Nate,,Bangor Daily News,USMFY18_BDN_970x90,Standard,Nate_970x90,(not set),0,35,0,21,35,35
10/20/2017,USM_FY18,970x90,DBM,Nate,,doubleclick.com/bidmanager,USMFY18_DBM_970x90,Standard,Nate_970x90,(not set),0,173,0,0,0,0
10/20/2017,USM_FY18,970x90,MaineToday,Nate,,Mainetoday.com - Portland Press Herald,USMFY18_MaineToday_970x90,Standard,Nate_970x90,(not set),0,1686,0,1167,1686,1686
10/20/2017,USM_FY18,DBM,Video,Lauren,30sec,doubleclick.com/bidmanager,USMFY18_DBM_Lauren_VIDEO,In-Stream Video,USMFY18_Lauren_30sec,http://usm.maine.edu/welcome,0,1655,0,85,774,790
10/20/2017,USM_FY18,DBM,Video,Nate,30sec,doubleclick.com/bidmanager,USMFY18_DBM_Lauren_VIDEO,In-Stream Video,USM_Nate_VIDEO,http://usm.maine.edu/welcome,0,1724,0,108,826,846
10/20/2017,USM_FY18,DBM,Video,Veronica,30sec,doubleclick.com/bidmanager,USMFY18_DBM_Lauren_VIDEO,In-Stream Video,USM_Veronica_VIDEO,http://usm.maine.edu/welcome,2,1687,0.12,94,840,872
10/20/2017,USM_FY18,Video,BDN,Lauren,,Bangor Daily News,USMFY18_BDN_Video,In-Stream Video,USMFY18_Lauren_30sec,http://usm.maine.edu/welcome,3,20,15,4,6,6
10/20/2017,USM_FY18,Video,BDN,Nate,,Bangor Daily News,USMFY18_BDN_Video,In-Stream Video,USM_Nate_VIDEO,http://usm.maine.edu/welcome,4,15,26.67,4,6,6
10/20/2017,USM_FY18,Video,BDN,Veronica,,Bangor Daily News,USMFY18_BDN_Video,In-Stream Video,USM_Veronica_VIDEO,http://usm.maine.edu/welcome,1,24,4.17,11,12,12
10/21/2017,USM_FY18,160x600,DBM,Lauren,,doubleclick.com/bidmanager,USMFY18_DBM_160x600,Standard,Lauren_160x600,(not set),0,1368,0,916,1321,1368
10/21/2017,USM_FY18,160x600,DBM,Nate,,doubleclick.com/bidmanager,USMFY18_DBM_160x600,Standard,Nate_160x600,(not set),2,1380,0.14,917,1321,1376
10/21/2017,USM_FY18,160x600,DBM,Veronica,,doubleclick.com/bidmanager,USMFY18_DBM_160x600,Standard,Veronica_160x600,(not set),2,1387,0.14,906,1324,1386
10/21/2017,USM_FY18,300x250 Default Web Ad,,,,Pandora,USMFY18_Pandora_300x250_Lauren,Default,USM-FY18_Nate_300x250_static,(not set),0,543,0,0,0,0
10/21/2017,USM_FY18,300x250,BDN,Lauren,,Bangor Daily News,USMFY18_BDN_300x250,Standard,Lauren_300x250,(not set),1,969,0.1,316,695,703
10/21/2017,USM_FY18,300x250,BDN,Nate,,Bangor Daily News,USMFY18_BDN_300x250,Standard,Nate_300x250,(not set),0,1002,0,316,722,730
10/21/2017,USM_FY18,300x250,BDN,Veronica,,Bangor Daily News,USMFY18_BDN_300x250,Standard,Veronica_300x250,(not set),1,887,0.11,309,652,661
10/21/2017,USM_FY18,300x250,DBM,Lauren,,doubleclick.com/bidmanager,USMFY18_DBM_300x250,Standard,Lauren_300x250,(not set),2,7480,0.03,4969,7174,7473
10/21/2017,USM_FY18,300x250,DBM,Nate,,doubleclick.com/bidmanager,USMFY18_DBM_300x250,Standard,Nate_300x250,(not set),2,7411,0.03,4901,7143,7409
10/21/2017,USM_FY18,300x250,DBM,Veronica,,doubleclick.com/bidmanager,USMFY18_DBM_300x250,Standard,Veronica_300x250,(not set),5,7328,0.07,4804,7052,7318
10/21/2017,USM_FY18,300x250,MaineToday,Lauren,,Mainetoday.com - Portland Press Herald,USMFY18_MaineToday_300x250,Standard,Lauren_300x250,(not set),0,5,0,3,4,5
10/21/2017,USM_FY18,300x250,MaineToday,Nate,,Mainetoday.com - Portland Press Herald,USMFY18_MaineToday_300x250,Standard,Nate_300x250,(not set),0,7,0,6,7,7
10/21/2017,USM_FY18,300x250,MaineToday,Veronica,,Mainetoday.com - Portland Press Herald,USMFY18_MaineToday_300x250,Standard,Veronica_300x250,(not set),0,9,0,5,9,9
10/21/2017,USM_FY18,300x250,Pandora,Nate,,Pandora,USMFY18_Pandora_300x250_Nate,Standard,Nate_300x250,(not set),5,659,0.76,0,0,0
10/21/2017,USM_FY18,300x250,Pandora,Veronica,,Pandora,USMFY18_Pandora_300x250_Veronica,Standard,Veronica_300x250,(not set),2,712,0.28,0,0,0
10/21/2017,USM_FY18,300x250,SJ,Lauren,,Sunjournal.com,USMFY18_SJ_300x250,Standard,Lauren_300x250,(not set),4,773,0.52,378,602,773
10/21/2017,USM_FY18,300x250,SJ,Nate,,Sunjournal.com,USMFY18_SJ_300x250,Standard,Nate_300x250,(not set),2,753,0.27,337,599,753
10/21/2017,USM_FY18,300x250,SJ,Veronica,,Sunjournal.com,USMFY18_SJ_300x250,Standard,Veronica_300x250,(not set),1,781,0.13,354,594,781
10/21/2017,USM_FY18,300x600,BDN,Lauren,,Bangor Daily News,USMFY18_BDN_300x600,Standard,Lauren_300x600,(not set),0,6,0,3,6,6
10/21/2017,USM_FY18,300x600,BDN,Nate,,Bangor Daily News,USMFY18_BDN_300x600,Standard,USM-FY18_Nate_300x600_static,(not set),0,7,0,4,7,7
10/21/2017,USM_FY18,300x600,BDN,Veronica,,Bangor Daily News,USMFY18_BDN_300x600,Standard,Veronica_300x600,(not set),0,6,0,3,6,6
10/21/2017,USM_FY18,300x600,DBM,Lauren,,doubleclick.com/bidmanager,USMFY18_DBM_300x600,Standard,Lauren_300x600,(not set),1,514,0.19,312,506,514
10/21/2017,USM_FY18,300x600,DBM,Nate,,doubleclick.com/bidmanager,USMFY18_DBM_300x600,Standard,USM-FY18_Nate_300x600_static,(not set),0,573,0,377,570,573
10/21/2017,USM_FY18,300x600,DBM,Veronica,,doubleclick.com/bidmanager,USMFY18_DBM_300x600,Standard,Veronica_300x600,(not set),0,503,0,297,491,503
10/21/2017,USM_FY18,300x600,MaineToday,Lauren,,Mainetoday.com - Portland Press Herald,USMFY18_MaineToday_300x600,Standard,Lauren_300x600,(not set),0,16,0,11,16,16
10/21/2017,USM_FY18,300x600,MaineToday,Nate,,Mainetoday.com - Portland Press Herald,USMFY18_MaineToday_300x600,Standard,USM-FY18_Nate_300x600_static,(not set),0,9,0,6,9,9
10/21/2017,USM_FY18,300x600,MaineToday,Veronica,,Mainetoday.com - Portland Press Herald,USMFY18_MaineToday_300x600,Standard,Veronica_300x600,(not set),0,22,0,14,19,22
10/21/2017,USM_FY18,320x50,DBM,Veronica,,doubleclick.com/bidmanager,USMFY18_DBM_320x50,Standard,USM-FY18_Veronica_320x50_static,(not set),17,19395,0.09,13732,18645,19283
10/21/2017,USM_FY18,320x50,MaineToday,Veronica,,Mainetoday.com - Portland Press Herald,USMFY18_MaineToday_320x50,Standard,USM-FY18_Veronica_320x50_static,(not set),1,1982,0.05,1179,1976,1982
10/21/2017,USM_FY18,640x640,Spotify,Nate,Tracker,Spotify,USMFY18_Spotify_640x640_Tracking,Tracking,640x640_Spotify_Tracker_Nate,http://usm.maine.edu/welcome,16,15266,0.1,0,0,0
10/21/2017,USM_FY18,728x90,DBM,Lauren,,doubleclick.com/bidmanager,USMFY18_DBM_728x90,Standard,Lauren_728x90,(not set),1,4407,0.02,2777,4312,4401
10/21/2017,USM_FY18,728x90,DBM,Nate,,doubleclick.com/bidmanager,USMFY18_DBM_728x90,Standard,Nate_728x90,(not set),0,4287,0,2701,4205,4282
10/21/2017,USM_FY18,728x90,DBM,Veronica,,doubleclick.com/bidmanager,USMFY18_DBM_728x90,Standard,Veronica_728x90,(not set),3,4324,0.07,2757,4223,4318
10/21/2017,USM_FY18,728x90,SJ,Lauren,,Sunjournal.com,USMFY18_SJ_728x90,Standard,Lauren_728x90,(not set),3,935,0.32,335,813,935
10/21/2017,USM_FY18,728x90,SJ,Nate,,Sunjournal.com,USMFY18_SJ_728x90,Standard,Nate_728x90,(not set),0,938,0,329,830,938
10/21/2017,USM_FY18,728x90,SJ,Veronica,,Sunjournal.com,USMFY18_SJ_728x90,Standard,Veronica_728x90,(not set),0,925,0,342,823,925
10/21/2017,USM_FY18,970x90,BDN,Nate,,Bangor Daily News,USMFY18_BDN_970x90,Standard,Nate_970x90,(not set),0,19,0,10,19,19
10/21/2017,USM_FY18,970x90,DBM,Nate,,doubleclick.com/bidmanager,USMFY18_DBM_970x90,Standard,Nate_970x90,(not set),0,106,0,0,0,0
10/21/2017,USM_FY18,970x90,MaineToday,Nate,,Mainetoday.com - Portland Press Herald,USMFY18_MaineToday_970x90,Standard,Nate_970x90,(not set),0,1801,0,1098,1794,1801
10/21/2017,USM_FY18,DBM,Video,Lauren,30sec,doubleclick.com/bidmanager,USMFY18_DBM_Lauren_VIDEO,In-Stream Video,USMFY18_Lauren_30sec,http://usm.maine.edu/welcome,0,1253,0,121,759,788
10/21/2017,USM_FY18,DBM,Video,Nate,30sec,doubleclick.com/bidmanager,USMFY18_DBM_Lauren_VIDEO,In-Stream Video,USM_Nate_VIDEO,http://usm.maine.edu/welcome,0,1247,0,97,748,772
10/21/2017,USM_FY18,DBM,Video,Veronica,30sec,doubleclick.com/bidmanager,USMFY18_DBM_Lauren_VIDEO,In-Stream Video,USM_Veronica_VIDEO,http://usm.maine.edu/welcome,0,1192,0,114,757,774
10/21/2017,USM_FY18,Video,BDN,Lauren,,Bangor Daily News,USMFY18_BDN_Video,In-Stream Video,USMFY18_Lauren_30sec,http://usm.maine.edu/welcome,0,16,0,4,4,4
10/21/2017,USM_FY18,Video,BDN,Nate,,Bangor Daily News,USMFY18_BDN_Video,In-Stream Video,USM_Nate_VIDEO,http://usm.maine.edu/welcome,1,29,3.45,4,7,7
10/21/2017,USM_FY18,Video,BDN,Veronica,,Bangor Daily News,USMFY18_BDN_Video,In-Stream Video,USM_Veronica_VIDEO,http://usm.maine.edu/welcome,4,24,16.67,6,7,7
10/22/2017,USM_FY18,160x600,DBM,Lauren,,doubleclick.com/bidmanager,USMFY18_DBM_160x600,Standard,Lauren_160x600,(not set),2,1564,0.13,1041,1490,1559
10/22/2017,USM_FY18,160x600,DBM,Nate,,doubleclick.com/bidmanager,USMFY18_DBM_160x600,Standard,Nate_160x600,(not set),2,1512,0.13,998,1437,1506
10/22/2017,USM_FY18,160x600,DBM,Veronica,,doubleclick.com/bidmanager,USMFY18_DBM_160x600,Standard,Veronica_160x600,(not set),2,1585,0.13,1047,1510,1577
10/22/2017,USM_FY18,300x250 Default Web Ad,,,,Pandora,USMFY18_Pandora_300x250_Lauren,Default,USM-FY18_Nate_300x250_static,(not set),1,552,0.18,0,0,0
10/22/2017,USM_FY18,300x250,BDN,Lauren,,Bangor Daily News,USMFY18_BDN_300x250,Standard,Lauren_300x250,(not set),2,1138,0.18,322,803,804
10/22/2017,USM_FY18,300x250,BDN,Nate,,Bangor Daily News,USMFY18_BDN_300x250,Standard,Nate_300x250,(not set),0,1090,0,335,786,787
10/22/2017,USM_FY18,300x250,BDN,Veronica,,Bangor Daily News,USMFY18_BDN_300x250,Standard,Veronica_300x250,(not set),2,1137,0.18,310,796,796
10/22/2017,USM_FY18,300x250,DBM,Lauren,,doubleclick.com/bidmanager,USMFY18_DBM_300x250,Standard,Lauren_300x250,(not set),3,7693,0.04,4888,7396,7686
10/22/2017,USM_FY18,300x250,DBM,Nate,,doubleclick.com/bidmanager,USMFY18_DBM_300x250,Standard,Nate_300x250,(not set),6,7594,0.08,4943,7326,7584
10/22/2017,USM_FY18,300x250,DBM,Veronica,,doubleclick.com/bidmanager,USMFY18_DBM_300x250,Standard,Veronica_300x250,(not set),9,7473,0.12,4783,7179,7465
10/22/2017,USM_FY18,300x250,MaineToday,Lauren,,Mainetoday.com - Portland Press Herald,USMFY18_MaineToday_300x250,Standard,Lauren_300x250,(not set),0,17,0,11,17,17
10/22/2017,USM_FY18,300x250,MaineToday,Nate,,Mainetoday.com - Portland Press Herald,USMFY18_MaineToday_300x250,Standard,Nate_300x250,(not set),0,7,0,5,7,7
10/22/2017,USM_FY18,300x250,MaineToday,Veronica,,Mainetoday.com - Portland Press Herald,USMFY18_MaineToday_300x250,Standard,Veronica_300x250,(not set),0,17,0,11,16,17
10/22/2017,USM_FY18,300x250,Pandora,Nate,,Pandora,USMFY18_Pandora_300x250_Nate,Standard,Nate_300x250,(not set),1,672,0.15,0,0,0
10/22/2017,USM_FY18,300x250,Pandora,Veronica,,Pandora,USMFY18_Pandora_300x250_Veronica,Standard,Veronica_300x250,(not set),1,714,0.14,0,0,0
10/22/2017,USM_FY18,300x250,SJ,Lauren,,Sunjournal.com,USMFY18_SJ_300x250,Standard,Lauren_300x250,(not set),0,772,0,392,563,772
10/22/2017,USM_FY18,300x250,SJ,Nate,,Sunjournal.com,USMFY18_SJ_300x250,Standard,Nate_300x250,(not set),0,715,0,357,535,715
10/22/2017,USM_FY18,300x250,SJ,Veronica,,Sunjournal.com,USMFY18_SJ_300x250,Standard,Veronica_300x250,(not set),2,799,0.25,386,585,799
10/22/2017,USM_FY18,300x600,DBM,Lauren,,doubleclick.com/bidmanager,USMFY18_DBM_300x600,Standard,Lauren_300x600,(not set),0,558,0,332,549,558
10/22/2017,USM_FY18,300x600,DBM,Nate,,doubleclick.com/bidmanager,USMFY18_DBM_300x600,Standard,USM-FY18_Nate_300x600_static,(not set),0,568,0,359,560,568
10/22/2017,USM_FY18,300x600,DBM,Veronica,,doubleclick.com/bidmanager,USMFY18_DBM_300x600,Standard,Veronica_300x600,(not set),0,626,0,368,615,626
10/22/2017,USM_FY18,300x600,MaineToday,Lauren,,Mainetoday.com - Portland Press Herald,USMFY18_MaineToday_300x600,Standard,Lauren_300x600,(not set),0,45,0,39,44,45
10/22/2017,USM_FY18,300x600,MaineToday,Nate,,Mainetoday.com - Portland Press Herald,USMFY18_MaineToday_300x600,Standard,USM-FY18_Nate_300x600_static,(not set),0,30,0,21,28,30
10/22/2017,USM_FY18,300x600,MaineToday,Veronica,,Mainetoday.com - Portland Press Herald,USMFY18_MaineToday_300x600,Standard,Veronica_300x600,(not set),0,39,0,34,37,39
10/22/2017,USM_FY18,320x50,DBM,Veronica,,doubleclick.com/bidmanager,USMFY18_DBM_320x50,Standard,USM-FY18_Veronica_320x50_static,(not set),15,19808,0.08,14096,18934,19574
10/22/2017,USM_FY18,320x50,MaineToday,Veronica,,Mainetoday.com - Portland Press Herald,USMFY18_MaineToday_320x50,Standard,USM-FY18_Veronica_320x50_static,(not set),3,1815,0.17,1026,1812,1815
10/22/2017,USM_FY18,640x640,Spotify,Nate,Tracker,Spotify,USMFY18_Spotify_640x640_Tracking,Tracking,640x640_Spotify_Tracker_Nate,http://usm.maine.edu/welcome,14,16261,0.09,0,0,0
10/22/2017,USM_FY18,728x90,DBM,Lauren,,doubleclick.com/bidmanager,USMFY18_DBM_728x90,Standard,Lauren_728x90,(not set),2,4378,0.05,2733,4255,4369
10/22/2017,USM_FY18,728x90,DBM,Nate,,doubleclick.com/bidmanager,USMFY18_DBM_728x90,Standard,Nate_728x90,(not set),1,4485,0.02,2803,4365,4477
10/22/2017,USM_FY18,728x90,DBM,Veronica,,doubleclick.com/bidmanager,USMFY18_DBM_728x90,Standard,Veronica_728x90,(not set),2,4467,0.04,2773,4357,4460
10/22/2017,USM_FY18,728x90,SJ,Lauren,,Sunjournal.com,USMFY18_SJ_728x90,Standard,Lauren_728x90,(not set),0,923,0,304,785,923
10/22/2017,USM_FY18,728x90,SJ,Nate,,Sunjournal.com,USMFY18_SJ_728x90,Standard,Nate_728x90,(not set),0,963,0,336,826,963
10/22/2017,USM_FY18,728x90,SJ,Veronica,,Sunjournal.com,USMFY18_SJ_728x90,Standard,Veronica_728x90,(not set),0,938,0,304,788,938
10/22/2017,USM_FY18,970x90,DBM,Nate,,doubleclick.com/bidmanager,USMFY18_DBM_970x90,Standard,Nate_970x90,(not set),0,150,0,0,0,0
10/22/2017,USM_FY18,970x90,MaineToday,Nate,,Mainetoday.com - Portland Press Herald,USMFY18_MaineToday_970x90,Standard,Nate_970x90,(not set),0,1868,0,1189,1839,1868
10/22/2017,USM_FY18,DBM,Video,Lauren,30sec,doubleclick.com/bidmanager,USMFY18_DBM_Lauren_VIDEO,In-Stream Video,USMFY18_Lauren_30sec,http://usm.maine.edu/welcome,0,1433,0,135,892,899
10/22/2017,USM_FY18,DBM,Video,Nate,30sec,doubleclick.com/bidmanager,USMFY18_DBM_Lauren_VIDEO,In-Stream Video,USM_Nate_VIDEO,http://usm.maine.edu/welcome,0,1376,0,130,853,865
10/22/2017,USM_FY18,DBM,Video,Veronica,30sec,doubleclick.com/bidmanager,USMFY18_DBM_Lauren_VIDEO,In-Stream Video,USM_Veronica_VIDEO,http://usm.maine.edu/welcome,0,1393,0,119,854,871
10/22/2017,USM_FY18,Video,BDN,Lauren,,Bangor Daily News,USMFY18_BDN_Video,In-Stream Video,USMFY18_Lauren_30sec,http://usm.maine.edu/welcome,3,18,16.67,4,6,6
10/22/2017,USM_FY18,Video,BDN,Nate,,Bangor Daily News,USMFY18_BDN_Video,In-Stream Video,USM_Nate_VIDEO,http://usm.maine.edu/welcome,3,17,17.65,1,3,2
10/22/2017,USM_FY18,Video,BDN,Veronica,,Bangor Daily News,USMFY18_BDN_Video,In-Stream Video,USM_Veronica_VIDEO,http://usm.maine.edu/welcome,2,20,10,8,9,9
10/23/2017,USM_FY18,160x600,DBM,Lauren,,doubleclick.com/bidmanager,USMFY18_DBM_160x600,Standard,Lauren_160x600,(not set),2,3502,0.06,2405,3405,3502
10/23/2017,USM_FY18,160x600,DBM,Nate,,doubleclick.com/bidmanager,USMFY18_DBM_160x600,Standard,Nate_160x600,(not set),2,3415,0.06,2374,3301,3415
10/23/2017,USM_FY18,160x600,DBM,Veronica,,doubleclick.com/bidmanager,USMFY18_DBM_160x600,Standard,Veronica_160x600,(not set),0,3333,0,2284,3213,3333
10/23/2017,USM_FY18,300x250 Default Web Ad,,,,Pandora,USMFY18_Pandora_300x250_Lauren,Default,USM-FY18_Nate_300x250_static,(not set),1,572,0.17,0,0,0
10/23/2017,USM_FY18,300x250,BDN,Lauren,,Bangor Daily News,USMFY18_BDN_300x250,Standard,Lauren_300x250,(not set),0,997,0,290,708,717
10/23/2017,USM_FY18,300x250,BDN,Nate,,Bangor Daily News,USMFY18_BDN_300x250,Standard,Nate_300x250,(not set),2,1005,0.2,321,734,740
10/23/2017,USM_FY18,300x250,BDN,Veronica,,Bangor Daily News,USMFY18_BDN_300x250,Standard,Veronica_300x250,(not set),1,991,0.1,314,688,701
10/23/2017,USM_FY18,300x250,DBM,Lauren,,doubleclick.com/bidmanager,USMFY18_DBM_300x250,Standard,Lauren_300x250,(not set),5,9866,0.05,6862,9584,9861
10/23/2017,USM_FY18,300x250,DBM,Nate,,doubleclick.com/bidmanager,USMFY18_DBM_300x250,Standard,Nate_300x250,(not set),4,9937,0.04,6963,9686,9931
10/23/2017,USM_FY18,300x250,DBM,Veronica,,doubleclick.com/bidmanager,USMFY18_DBM_300x250,Standard,Veronica_300x250,(not set),5,9802,0.05,6818,9547,9800
10/23/2017,USM_FY18,300x250,MaineToday,Lauren,,Mainetoday.com - Portland Press Herald,USMFY18_MaineToday_300x250,Standard,Lauren_300x250,(not set),0,3,0,3,3,3
10/23/2017,USM_FY18,300x250,MaineToday,Nate,,Mainetoday.com - Portland Press Herald,USMFY18_MaineToday_300x250,Standard,Nate_300x250,(not set),0,3,0,3,3,3
10/23/2017,USM_FY18,300x250,MaineToday,Veronica,,Mainetoday.com - Portland Press Herald,USMFY18_MaineToday_300x250,Standard,Veronica_300x250,(not set),0,6,0,5,6,6
10/23/2017,USM_FY18,300x250,Pandora,Nate,,Pandora,USMFY18_Pandora_300x250_Nate,Standard,Nate_300x250,(not set),3,706,0.42,0,0,0
10/23/2017,USM_FY18,300x250,Pandora,Veronica,,Pandora,USMFY18_Pandora_300x250_Veronica,Standard,Veronica_300x250,(not set),0,741,0,0,0,0
10/23/2017,USM_FY18,300x250,SJ,Lauren,,Sunjournal.com,USMFY18_SJ_300x250,Standard,Lauren_300x250,(not set),1,824,0.12,418,661,824
10/23/2017,USM_FY18,300x250,SJ,Nate,,Sunjournal.com,USMFY18_SJ_300x250,Standard,Nate_300x250,(not set),1,837,0.12,457,704,837
10/23/2017,USM_FY18,300x250,SJ,Veronica,,Sunjournal.com,USMFY18_SJ_300x250,Standard,Veronica_300x250,(not set),0,788,0,416,649,788
10/23/2017,USM_FY18,300x600,DBM,Lauren,,doubleclick.com/bidmanager,USMFY18_DBM_300x600,Standard,Lauren_300x600,(not set),0,932,0,542,921,932
10/23/2017,USM_FY18,300x600,DBM,Nate,,doubleclick.com/bidmanager,USMFY18_DBM_300x600,Standard,USM-FY18_Nate_300x600_static,(not set),0,938,0,639,925,938
10/23/2017,USM_FY18,300x600,DBM,Veronica,,doubleclick.com/bidmanager,USMFY18_DBM_300x600,Standard,Veronica_300x600,(not set),1,849,0.12,534,844,849
10/23/2017,USM_FY18,300x600,MaineToday,Lauren,,Mainetoday.com - Portland Press Herald,USMFY18_MaineToday_300x600,Standard,Lauren_300x600,(not set),0,33,0,25,33,33
10/23/2017,USM_FY18,300x600,MaineToday,Nate,,Mainetoday.com - Portland Press Herald,USMFY18_MaineToday_300x600,Standard,USM-FY18_Nate_300x600_static,(not set),0,38,0,28,38,38
10/23/2017,USM_FY18,300x600,MaineToday,Veronica,,Mainetoday.com - Portland Press Herald,USMFY18_MaineToday_300x600,Standard,Veronica_300x600,(not set),0,42,0,34,41,42
10/23/2017,USM_FY18,320x50,DBM,Veronica,,doubleclick.com/bidmanager,USMFY18_DBM_320x50,Standard,USM-FY18_Veronica_320x50_static,(not set),9,14152,0.06,9938,13825,14113
10/23/2017,USM_FY18,320x50,MaineToday,Veronica,,Mainetoday.com - Portland Press Herald,USMFY18_MaineToday_320x50,Standard,USM-FY18_Veronica_320x50_static,(not set),0,1506,0,731,1503,1506
10/23/2017,USM_FY18,640x640,Spotify,Nate,Tracker,Spotify,USMFY18_Spotify_640x640_Tracking,Tracking,640x640_Spotify_Tracker_Nate,http://usm.maine.edu/welcome,26,16694,0.16,0,0,0
10/23/2017,USM_FY18,728x90,DBM,Lauren,,doubleclick.com/bidmanager,USMFY18_DBM_728x90,Standard,Lauren_728x90,(not set),1,4834,0.02,2800,4764,4831
10/23/2017,USM_FY18,728x90,DBM,Nate,,doubleclick.com/bidmanager,USMFY18_DBM_728x90,Standard,Nate_728x90,(not set),0,4969,0,2874,4906,4965
10/23/2017,USM_FY18,728x90,DBM,Veronica,,doubleclick.com/bidmanager,USMFY18_DBM_728x90,Standard,Veronica_728x90,(not set),2,4759,0.04,2746,4681,4756
10/23/2017,USM_FY18,728x90,SJ,Lauren,,Sunjournal.com,USMFY18_SJ_728x90,Standard,Lauren_728x90,(not set),1,1248,0.08,507,1099,1248
10/23/2017,USM_FY18,728x90,SJ,Nate,,Sunjournal.com,USMFY18_SJ_728x90,Standard,Nate_728x90,(not set),0,1242,0,498,1123,1242
10/23/2017,USM_FY18,728x90,SJ,Veronica,,Sunjournal.com,USMFY18_SJ_728x90,Standard,Veronica_728x90,(not set),0,1285,0,557,1146,1285
10/23/2017,USM_FY18,970x90,DBM,Nate,,doubleclick.com/bidmanager,USMFY18_DBM_970x90,Standard,Nate_970x90,(not set),0,211,0,0,0,0
10/23/2017,USM_FY18,970x90,MaineToday,Nate,,Mainetoday.com - Portland Press Herald,USMFY18_MaineToday_970x90,Standard,Nate_970x90,(not set),0,2455,0,1494,2301,2455
10/23/2017,USM_FY18,DBM,Video,Lauren,30sec,doubleclick.com/bidmanager,USMFY18_DBM_Lauren_VIDEO,In-Stream Video,USMFY18_Lauren_30sec,http://usm.maine.edu/welcome,1,1995,0.05,156,1017,1037
10/23/2017,USM_FY18,DBM,Video,Nate,30sec,doubleclick.com/bidmanager,USMFY18_DBM_Lauren_VIDEO,In-Stream Video,USM_Nate_VIDEO,http://usm.maine.edu/welcome,0,1975,0,140,1007,1025
10/23/2017,USM_FY18,DBM,Video,Veronica,30sec,doubleclick.com/bidmanager,USMFY18_DBM_Lauren_VIDEO,In-Stream Video,USM_Veronica_VIDEO,http://usm.maine.edu/welcome,1,2027,0.05,136,996,1004
10/23/2017,USM_FY18,Video,BDN,Lauren,,Bangor Daily News,USMFY18_BDN_Video,In-Stream Video,USMFY18_Lauren_30sec,http://usm.maine.edu/welcome,5,22,22.73,9,13,12
10/23/2017,USM_FY18,Video,BDN,Nate,,Bangor Daily News,USMFY18_BDN_Video,In-Stream Video,USM_Nate_VIDEO,http://usm.maine.edu/welcome,6,17,35.29,12,15,14
10/23/2017,USM_FY18,Video,BDN,Veronica,,Bangor Daily News,USMFY18_BDN_Video,In-Stream Video,USM_Veronica_VIDEO,http://usm.maine.edu/welcome,3,20,15,12,16,16
10/24/2017,USM_FY18,160x600,DBM,Lauren,,doubleclick.com/bidmanager,USMFY18_DBM_160x600,Standard,Lauren_160x600,(not set),3,4035,0.07,2708,3913,4033
10/24/2017,USM_FY18,160x600,DBM,Nate,,doubleclick.com/bidmanager,USMFY18_DBM_160x600,Standard,Nate_160x600,(not set),4,4028,0.1,2679,3900,4027
10/24/2017,USM_FY18,160x600,DBM,Veronica,,doubleclick.com/bidmanager,USMFY18_DBM_160x600,Standard,Veronica_160x600,(not set),1,4081,0.02,2654,3941,4080
10/24/2017,USM_FY18,300x250 Default Web Ad,,,,Pandora,USMFY18_Pandora_300x250_Lauren,Default,USM-FY18_Nate_300x250_static,(not set),2,551,0.36,0,0,0
10/24/2017,USM_FY18,300x250,BDN,Lauren,,Bangor Daily News,USMFY18_BDN_300x250,Standard,Lauren_300x250,(not set),0,1026,0,351,757,770
10/24/2017,USM_FY18,300x250,BDN,Nate,,Bangor Daily News,USMFY18_BDN_300x250,Standard,Nate_300x250,(not set),1,899,0.11,287,661,671
10/24/2017,USM_FY18,300x250,BDN,Veronica,,Bangor Daily News,USMFY18_BDN_300x250,Standard,Veronica_300x250,(not set),1,961,0.1,302,698,705
10/24/2017,USM_FY18,300x250,DBM,Lauren,,doubleclick.com/bidmanager,USMFY18_DBM_300x250,Standard,Lauren_300x250,(not set),7,10386,0.07,6482,10094,10380
10/24/2017,USM_FY18,300x250,DBM,Nate,,doubleclick.com/bidmanager,USMFY18_DBM_300x250,Standard,Nate_300x250,(not set),2,10438,0.02,6497,10134,10435
10/24/2017,USM_FY18,300x250,DBM,Veronica,,doubleclick.com/bidmanager,USMFY18_DBM_300x250,Standard,Veronica_300x250,(not set),7,10423,0.07,6393,10125,10417
10/24/2017,USM_FY18,300x250,MaineToday,Lauren,,Mainetoday.com - Portland Press Herald,USMFY18_MaineToday_300x250,Standard,Lauren_300x250,(not set),0,1,0,1,1,1
10/24/2017,USM_FY18,300x250,Pandora,Nate,,Pandora,USMFY18_Pandora_300x250_Nate,Standard,Nate_300x250,(not set),3,781,0.38,0,0,0
10/24/2017,USM_FY18,300x250,Pandora,Veronica,,Pandora,USMFY18_Pandora_300x250_Veronica,Standard,Veronica_300x250,(not set),1,727,0.14,0,0,0
10/24/2017,USM_FY18,300x250,SJ,Lauren,,Sunjournal.com,USMFY18_SJ_300x250,Standard,Lauren_300x250,(not set),0,1061,0,552,851,1061
10/24/2017,USM_FY18,300x250,SJ,Nate,,Sunjournal.com,USMFY18_SJ_300x250,Standard,Nate_300x250,(not set),1,990,0.1,558,816,990
10/24/2017,USM_FY18,300x250,SJ,Veronica,,Sunjournal.com,USMFY18_SJ_300x250,Standard,Veronica_300x250,(not set),0,1091,0,573,874,1091
10/24/2017,USM_FY18,300x600,BDN,Lauren,,Bangor Daily News,USMFY18_BDN_300x600,Standard,Lauren_300x600,(not set),0,10,0,7,9,9
10/24/2017,USM_FY18,300x600,BDN,Nate,,Bangor Daily News,USMFY18_BDN_300x600,Standard,USM-FY18_Nate_300x600_static,(not set),0,15,0,12,15,15
10/24/2017,USM_FY18,300x600,BDN,Veronica,,Bangor Daily News,USMFY18_BDN_300x600,Standard,Veronica_300x600,(not set),0,20,0,10,18,18
10/24/2017,USM_FY18,300x600,DBM,Lauren,,doubleclick.com/bidmanager,USMFY18_DBM_300x600,Standard,Lauren_300x600,(not set),1,1080,0.09,624,1069,1080
10/24/2017,USM_FY18,300x600,DBM,Nate,,doubleclick.com/bidmanager,USMFY18_DBM_300x600,Standard,USM-FY18_Nate_300x600_static,(not set),0,1082,0,666,1065,1082
10/24/2017,USM_FY18,300x600,DBM,Veronica,,doubleclick.com/bidmanager,USMFY18_DBM_300x600,Standard,Veronica_300x600,(not set),1,1052,0.1,592,1038,1050
10/24/2017,USM_FY18,300x600,MaineToday,Lauren,,Mainetoday.com - Portland Press Herald,USMFY18_MaineToday_300x600,Standard,Lauren_300x600,(not set),0,1,0,1,1,1
10/24/2017,USM_FY18,300x600,MaineToday,Veronica,,Mainetoday.com - Portland Press Herald,USMFY18_MaineToday_300x600,Standard,Veronica_300x600,(not set),0,2,0,2,2,2
10/24/2017,USM_FY18,320x50,DBM,Veronica,,doubleclick.com/bidmanager,USMFY18_DBM_320x50,Standard,USM-FY18_Veronica_320x50_static,(not set),6,14734,0.04,10370,14383,14702
10/24/2017,USM_FY18,320x50,MaineToday,Veronica,,Mainetoday.com - Portland Press Herald,USMFY18_MaineToday_320x50,Standard,USM-FY18_Veronica_320x50_static,(not set),0,1027,0,486,1027,1027
10/24/2017,USM_FY18,640x640,Spotify,Nate,Tracker,Spotify,USMFY18_Spotify_640x640_Tracking,Tracking,640x640_Spotify_Tracker_Nate,http://usm.maine.edu/welcome,20,15989,0.13,0,0,0
10/24/2017,USM_FY18,728x90,DBM,Lauren,,doubleclick.com/bidmanager,USMFY18_DBM_728x90,Standard,Lauren_728x90,(not set),2,5701,0.04,3204,5613,5700
10/24/2017,USM_FY18,728x90,DBM,Nate,,doubleclick.com/bidmanager,USMFY18_DBM_728x90,Standard,Nate_728x90,(not set),2,5957,0.03,3340,5880,5953
10/24/2017,USM_FY18,728x90,DBM,Veronica,,doubleclick.com/bidmanager,USMFY18_DBM_728x90,Standard,Veronica_728x90,(not set),3,5873,0.05,3251,5782,5868
10/24/2017,USM_FY18,728x90,SJ,Lauren,,Sunjournal.com,USMFY18_SJ_728x90,Standard,Lauren_728x90,(not set),3,1160,0.26,421,1001,1160
10/24/2017,USM_FY18,728x90,SJ,Nate,,Sunjournal.com,USMFY18_SJ_728x90,Standard,Nate_728x90,(not set),2,1197,0.17,443,1010,1197
10/24/2017,USM_FY18,728x90,SJ,Veronica,,Sunjournal.com,USMFY18_SJ_728x90,Standard,Veronica_728x90,(not set),1,1139,0.09,394,979,1139
10/24/2017,USM_FY18,970x90,BDN,Nate,,Bangor Daily News,USMFY18_BDN_970x90,Standard,Nate_970x90,(not set),0,42,0,22,41,41
10/24/2017,USM_FY18,970x90,DBM,Nate,,doubleclick.com/bidmanager,USMFY18_DBM_970x90,Standard,Nate_970x90,(not set),0,261,0,0,0,0
10/24/2017,USM_FY18,970x90,MaineToday,Nate,,Mainetoday.com - Portland Press Herald,USMFY18_MaineToday_970x90,Standard,Nate_970x90,(not set),2,3208,0.06,1997,3036,3208
10/24/2017,USM_FY18,DBM,Video,Lauren,30sec,doubleclick.com/bidmanager,USMFY18_DBM_Lauren_VIDEO,In-Stream Video,USMFY18_Lauren_30sec,http://usm.maine.edu/welcome,0,1917,0,185,1151,1164
10/24/2017,USM_FY18,DBM,Video,Nate,30sec,doubleclick.com/bidmanager,USMFY18_DBM_Lauren_VIDEO,In-Stream Video,USM_Nate_VIDEO,http://usm.maine.edu/welcome,1,1846,0.05,224,1136,1148
10/24/2017,USM_FY18,DBM,Video,Veronica,30sec,doubleclick.com/bidmanager,USMFY18_DBM_Lauren_VIDEO,In-Stream Video,USM_Veronica_VIDEO,http://usm.maine.edu/welcome,0,1893,0,224,1154,1177
10/24/2017,USM_FY18,Video,BDN,Lauren,,Bangor Daily News,USMFY18_BDN_Video,In-Stream Video,USMFY18_Lauren_30sec,http://usm.maine.edu/welcome,2,23,8.7,13,13,13
10/24/2017,USM_FY18,Video,BDN,Nate,,Bangor Daily News,USMFY18_BDN_Video,In-Stream Video,USM_Nate_VIDEO,http://usm.maine.edu/welcome,1,22,4.55,8,9,9
10/24/2017,USM_FY18,Video,BDN,Veronica,,Bangor Daily News,USMFY18_BDN_Video,In-Stream Video,USM_Veronica_VIDEO,http://usm.maine.edu/welcome,3,22,13.64,7,8,8
10/25/2017,USM_FY18,160x600,DBM,Lauren,,doubleclick.com/bidmanager,USMFY18_DBM_160x600,Standard,Lauren_160x600,(not set),1,4109,0.02,2582,3981,4109
10/25/2017,USM_FY18,160x600,DBM,Nate,,doubleclick.com/bidmanager,USMFY18_DBM_160x600,Standard,Nate_160x600,(not set),3,4056,0.07,2577,3926,4050
10/25/2017,USM_FY18,160x600,DBM,Veronica,,doubleclick.com/bidmanager,USMFY18_DBM_160x600,Standard,Veronica_160x600,(not set),2,4057,0.05,2553,3932,4053
10/25/2017,USM_FY18,300x250 Default Web Ad,,,,Pandora,USMFY18_Pandora_300x250_Lauren,Default,USM-FY18_Nate_300x250_static,(not set),2,625,0.32,0,0,0
10/25/2017,USM_FY18,300x250,BDN,Lauren,,Bangor Daily News,USMFY18_BDN_300x250,Standard,Lauren_300x250,(not set),1,1011,0.1,336,760,776
10/25/2017,USM_FY18,300x250,BDN,Nate,,Bangor Daily News,USMFY18_BDN_300x250,Standard,Nate_300x250,(not set),0,1001,0,364,752,761
10/25/2017,USM_FY18,300x250,BDN,Veronica,,Bangor Daily News,USMFY18_BDN_300x250,Standard,Veronica_300x250,(not set),0,1022,0,309,770,777
10/25/2017,USM_FY18,300x250,DBM,Lauren,,doubleclick.com/bidmanager,USMFY18_DBM_300x250,Standard,Lauren_300x250,(not set),5,10612,0.05,6634,10301,10605
10/25/2017,USM_FY18,300x250,DBM,Nate,,doubleclick.com/bidmanager,USMFY18_DBM_300x250,Standard,Nate_300x250,(not set),3,10574,0.03,6555,10254,10558
10/25/2017,USM_FY18,300x250,DBM,Veronica,,doubleclick.com/bidmanager,USMFY18_DBM_300x250,Standard,Veronica_300x250,(not set),3,10482,0.03,6559,10210,10471
10/25/2017,USM_FY18,300x250,MaineToday,Lauren,,Mainetoday.com - Portland Press Herald,USMFY18_MaineToday_300x250,Standard,Lauren_300x250,(not set),0,5,0,4,5,5
10/25/2017,USM_FY18,300x250,MaineToday,Nate,,Mainetoday.com - Portland Press Herald,USMFY18_MaineToday_300x250,Standard,Nate_300x250,(not set),0,9,0,5,9,9
10/25/2017,USM_FY18,300x250,MaineToday,Veronica,,Mainetoday.com - Portland Press Herald,USMFY18_MaineToday_300x250,Standard,Veronica_300x250,(not set),0,6,0,6,6,6
10/25/2017,USM_FY18,300x250,Pandora,Nate,,Pandora,USMFY18_Pandora_300x250_Nate,Standard,Nate_300x250,(not set),0,742,0,0,0,0
10/25/2017,USM_FY18,300x250,Pandora,Veronica,,Pandora,USMFY18_Pandora_300x250_Veronica,Standard,Veronica_300x250,(not set),1,711,0.14,0,0,0
10/25/2017,USM_FY18,300x250,SJ,Lauren,,Sunjournal.com,USMFY18_SJ_300x250,Standard,Lauren_300x250,(not set),0,1447,0,645,1417,1447
10/25/2017,USM_FY18,300x250,SJ,Nate,,Sunjournal.com,USMFY18_SJ_300x250,Standard,Nate_300x250,(not set),0,1384,0,632,1340,1384
10/25/2017,USM_FY18,300x250,SJ,Veronica,,Sunjournal.com,USMFY18_SJ_300x250,Standard,Veronica_300x250,(not set),2,1394,0.14,624,1359,1394
10/25/2017,USM_FY18,300x600,BDN,Lauren,,Bangor Daily News,USMFY18_BDN_300x600,Standard,Lauren_300x600,(not set),0,4,0,3,4,4
10/25/2017,USM_FY18,300x600,BDN,Nate,,Bangor Daily News,USMFY18_BDN_300x600,Standard,USM-FY18_Nate_300x600_static,(not set),0,2,0,1,1,1
10/25/2017,USM_FY18,300x600,BDN,Veronica,,Bangor Daily News,USMFY18_BDN_300x600,Standard,Veronica_300x600,(not set),0,10,0,7,10,10
10/25/2017,USM_FY18,300x600,DBM,Lauren,,doubleclick.com/bidmanager,USMFY18_DBM_300x600,Standard,Lauren_300x600,(not set),1,1310,0.08,730,1292,1309
10/25/2017,USM_FY18,300x600,DBM,Nate,,doubleclick.com/bidmanager,USMFY18_DBM_300x600,Standard,USM-FY18_Nate_300x600_static,(not set),0,1235,0,755,1217,1235
10/25/2017,USM_FY18,300x600,DBM,Veronica,,doubleclick.com/bidmanager,USMFY18_DBM_300x600,Standard,Veronica_300x600,(not set),0,1166,0,636,1153,1165
10/25/2017,USM_FY18,300x600,MaineToday,Lauren,,Mainetoday.com - Portland Press Herald,USMFY18_MaineToday_300x600,Standard,Lauren_300x600,(not set),0,30,0,25,30,30
10/25/2017,USM_FY18,300x600,MaineToday,Nate,,Mainetoday.com - Portland Press Herald,USMFY18_MaineToday_300x600,Standard,USM-FY18_Nate_300x600_static,(not set),0,32,0,26,32,32
10/25/2017,USM_FY18,300x600,MaineToday,Veronica,,Mainetoday.com - Portland Press Herald,USMFY18_MaineToday_300x600,Standard,Veronica_300x600,(not set),0,42,0,33,41,42
10/25/2017,USM_FY18,320x50,DBM,Veronica,,doubleclick.com/bidmanager,USMFY18_DBM_320x50,Standard,USM-FY18_Veronica_320x50_static,(not set),5,12423,0.04,8749,12083,12355
10/25/2017,USM_FY18,320x50,MaineToday,Veronica,,Mainetoday.com - Portland Press Herald,USMFY18_MaineToday_320x50,Standard,USM-FY18_Veronica_320x50_static,(not set),1,1526,0.07,788,1525,1526
10/25/2017,USM_FY18,640x640,Spotify,Nate,Tracker,Spotify,USMFY18_Spotify_640x640_Tracking,Tracking,640x640_Spotify_Tracker_Nate,http://usm.maine.edu/welcome,31,16329,0.19,0,0,0
10/25/2017,USM_FY18,728x90,DBM,Lauren,,doubleclick.com/bidmanager,USMFY18_DBM_728x90,Standard,Lauren_728x90,(not set),1,5423,0.02,3065,5350,5417
10/25/2017,USM_FY18,728x90,DBM,Nate,,doubleclick.com/bidmanager,USMFY18_DBM_728x90,Standard,Nate_728x90,(not set),1,5359,0.02,3038,5281,5353
10/25/2017,USM_FY18,728x90,DBM,Veronica,,doubleclick.com/bidmanager,USMFY18_DBM_728x90,Standard,Veronica_728x90,(not set),1,5422,0.02,3063,5369,5417
10/25/2017,USM_FY18,728x90,SJ,Lauren,,Sunjournal.com,USMFY18_SJ_728x90,Standard,Lauren_728x90,(not set),6,2202,0.27,1841,2191,2202
10/25/2017,USM_FY18,728x90,SJ,Nate,,Sunjournal.com,USMFY18_SJ_728x90,Standard,Nate_728x90,(not set),1,2134,0.05,1796,2121,2134
10/25/2017,USM_FY18,728x90,SJ,Veronica,,Sunjournal.com,USMFY18_SJ_728x90,Standard,Veronica_728x90,(not set),4,2242,0.18,1878,2231,2242
10/25/2017,USM_FY18,970x90,BDN,Nate,,Bangor Daily News,USMFY18_BDN_970x90,Standard,Nate_970x90,(not set),0,21,0,13,20,20
10/25/2017,USM_FY18,970x90,DBM,Nate,,doubleclick.com/bidmanager,USMFY18_DBM_970x90,Standard,Nate_970x90,(not set),0,324,0,0,0,0
10/25/2017,USM_FY18,970x90,MaineToday,Nate,,Mainetoday.com - Portland Press Herald,USMFY18_MaineToday_970x90,Standard,Nate_970x90,(not set),1,2464,0.04,1507,2286,2464
10/25/2017,USM_FY18,DBM,Video,Lauren,30sec,doubleclick.com/bidmanager,USMFY18_DBM_Lauren_VIDEO,In-Stream Video,USMFY18_Lauren_30sec,http://usm.maine.edu/welcome,0,1618,0,186,1186,1203
10/25/2017,USM_FY18,DBM,Video,Nate,30sec,doubleclick.com/bidmanager,USMFY18_DBM_Lauren_VIDEO,In-Stream Video,USM_Nate_VIDEO,http://usm.maine.edu/welcome,0,1633,0,183,1205,1218
10/25/2017,USM_FY18,DBM,Video,Veronica,30sec,doubleclick.com/bidmanager,USMFY18_DBM_Lauren_VIDEO,In-Stream Video,USM_Veronica_VIDEO,http://usm.maine.edu/welcome,0,1675,0,143,1251,1269
10/25/2017,USM_FY18,Video,BDN,Lauren,,Bangor Daily News,USMFY18_BDN_Video,In-Stream Video,USMFY18_Lauren_30sec,http://usm.maine.edu/welcome,3,20,15,5,5,4
10/25/2017,USM_FY18,Video,BDN,Nate,,Bangor Daily News,USMFY18_BDN_Video,In-Stream Video,USM_Nate_VIDEO,http://usm.maine.edu/welcome,3,22,13.64,10,11,11
10/25/2017,USM_FY18,Video,BDN,Veronica,,Bangor Daily News,USMFY18_BDN_Video,In-Stream Video,USM_Veronica_VIDEO,http://usm.maine.edu/welcome,1,8,12.5,4,5,4
10/26/2017,USM_FY18,160x600,DBM,Lauren,,doubleclick.com/bidmanager,USMFY18_DBM_160x600,Standard,Lauren_160x600,(not set),1,4897,0.02,3038,4728,4896
10/26/2017,USM_FY18,160x600,DBM,Nate,,doubleclick.com/bidmanager,USMFY18_DBM_160x600,Standard,Nate_160x600,(not set),3,4947,0.06,3029,4765,4945
10/26/2017,USM_FY18,160x600,DBM,Veronica,,doubleclick.com/bidmanager,USMFY18_DBM_160x600,Standard,Veronica_160x600,(not set),3,4910,0.06,2972,4759,4905
10/26/2017,USM_FY18,300x250 Default Web Ad,,,,Pandora,USMFY18_Pandora_300x250_Lauren,Default,USM-FY18_Nate_300x250_static,(not set),0,546,0,0,0,0
10/26/2017,USM_FY18,300x250,BDN,Lauren,,Bangor Daily News,USMFY18_BDN_300x250,Standard,Lauren_300x250,(not set),0,1017,0,282,705,723
10/26/2017,USM_FY18,300x250,BDN,Nate,,Bangor Daily News,USMFY18_BDN_300x250,Standard,Nate_300x250,(not set),0,932,0,268,686,697
10/26/2017,USM_FY18,300x250,BDN,Veronica,,Bangor Daily News,USMFY18_BDN_300x250,Standard,Veronica_300x250,(not set),0,1024,0,297,737,748
10/26/2017,USM_FY18,300x250,DBM,Lauren,,doubleclick.com/bidmanager,USMFY18_DBM_300x250,Standard,Lauren_300x250,(not set),8,11390,0.07,7075,11074,11377
10/26/2017,USM_FY18,300x250,DBM,Nate,,doubleclick.com/bidmanager,USMFY18_DBM_300x250,Standard,Nate_300x250,(not set),5,11185,0.04,6899,10896,11174
10/26/2017,USM_FY18,300x250,DBM,Veronica,,doubleclick.com/bidmanager,USMFY18_DBM_300x250,Standard,Veronica_300x250,(not set),2,11070,0.02,6827,10796,11055
10/26/2017,USM_FY18,300x250,MaineToday,Lauren,,Mainetoday.com - Portland Press Herald,USMFY18_MaineToday_300x250,Standard,Lauren_300x250,(not set),0,15,0,8,12,15
10/26/2017,USM_FY18,300x250,MaineToday,Nate,,Mainetoday.com - Portland Press Herald,USMFY18_MaineToday_300x250,Standard,Nate_300x250,(not set),0,19,0,12,19,19
10/26/2017,USM_FY18,300x250,MaineToday,Veronica,,Mainetoday.com - Portland Press Herald,USMFY18_MaineToday_300x250,Standard,Veronica_300x250,(not set),0,17,0,12,16,17
10/26/2017,USM_FY18,300x250,Pandora,Nate,,Pandora,USMFY18_Pandora_300x250_Nate,Standard,Nate_300x250,(not set),0,766,0,0,0,0
10/26/2017,USM_FY18,300x250,Pandora,Veronica,,Pandora,USMFY18_Pandora_300x250_Veronica,Standard,Veronica_300x250,(not set),2,784,0.26,0,0,0
10/26/2017,USM_FY18,300x250,SJ,Lauren,,Sunjournal.com,USMFY18_SJ_300x250,Standard,Lauren_300x250,(not set),1,904,0.11,738,883,904
10/26/2017,USM_FY18,300x250,SJ,Nate,,Sunjournal.com,USMFY18_SJ_300x250,Standard,Nate_300x250,(not set),0,967,0,793,932,967
10/26/2017,USM_FY18,300x250,SJ,Veronica,,Sunjournal.com,USMFY18_SJ_300x250,Standard,Veronica_300x250,(not set),1,976,0.1,795,949,976
10/26/2017,USM_FY18,300x600,BDN,Lauren,,Bangor Daily News,USMFY18_BDN_300x600,Standard,Lauren_300x600,(not set),0,5,0,5,5,5
10/26/2017,USM_FY18,300x600,BDN,Nate,,Bangor Daily News,USMFY18_BDN_300x600,Standard,USM-FY18_Nate_300x600_static,(not set),0,9,0,7,9,9
10/26/2017,USM_FY18,300x600,BDN,Veronica,,Bangor Daily News,USMFY18_BDN_300x600,Standard,Veronica_300x600,(not set),0,8,0,5,8,8
10/26/2017,USM_FY18,300x600,DBM,Lauren,,doubleclick.com/bidmanager,USMFY18_DBM_300x600,Standard,Lauren_300x600,(not set),0,996,0,569,985,996
10/26/2017,USM_FY18,300x600,DBM,Nate,,doubleclick.com/bidmanager,USMFY18_DBM_300x600,Standard,USM-FY18_Nate_300x600_static,(not set),0,968,0,612,953,968
10/26/2017,USM_FY18,300x600,DBM,Veronica,,doubleclick.com/bidmanager,USMFY18_DBM_300x600,Standard,Veronica_300x600,(not set),0,943,0,498,928,943
10/26/2017,USM_FY18,300x600,MaineToday,Lauren,,Mainetoday.com - Portland Press Herald,USMFY18_MaineToday_300x600,Standard,Lauren_300x600,(not set),0,58,0,46,57,58
10/26/2017,USM_FY18,300x600,MaineToday,Nate,,Mainetoday.com - Portland Press Herald,USMFY18_MaineToday_300x600,Standard,USM-FY18_Nate_300x600_static,(not set),0,39,0,33,39,39
10/26/2017,USM_FY18,300x600,MaineToday,Veronica,,Mainetoday.com - Portland Press Herald,USMFY18_MaineToday_300x600,Standard,Veronica_300x600,(not set),0,42,0,39,42,42
10/26/2017,USM_FY18,320x50,DBM,Veronica,,doubleclick.com/bidmanager,USMFY18_DBM_320x50,Standard,USM-FY18_Veronica_320x50_static,(not set),6,13898,0.04,10050,13596,13843
10/26/2017,USM_FY18,320x50,MaineToday,Veronica,,Mainetoday.com - Portland Press Herald,USMFY18_MaineToday_320x50,Standard,USM-FY18_Veronica_320x50_static,(not set),3,1523,0.2,776,1522,1523
10/26/2017,USM_FY18,640x640,Spotify,Nate,Tracker,Spotify,USMFY18_Spotify_640x640_Tracking,Tracking,640x640_Spotify_Tracker_Nate,http://usm.maine.edu/welcome,27,15656,0.17,0,0,0
10/26/2017,USM_FY18,728x90,DBM,Lauren,,doubleclick.com/bidmanager,USMFY18_DBM_728x90,Standard,Lauren_728x90,(not set),1,5269,0.02,2859,5198,5265
10/26/2017,USM_FY18,728x90,DBM,Nate,,doubleclick.com/bidmanager,USMFY18_DBM_728x90,Standard,Nate_728x90,(not set),3,5117,0.06,2834,5047,5113
10/26/2017,USM_FY18,728x90,DBM,Veronica,,doubleclick.com/bidmanager,USMFY18_DBM_728x90,Standard,Veronica_728x90,(not set),2,5194,0.04,2857,5121,5185
10/26/2017,USM_FY18,728x90,SJ,Lauren,,Sunjournal.com,USMFY18_SJ_728x90,Standard,Lauren_728x90,(not set),2,1091,0.18,861,1090,1091
10/26/2017,USM_FY18,728x90,SJ,Nate,,Sunjournal.com,USMFY18_SJ_728x90,Standard,Nate_728x90,(not set),1,1134,0.09,912,1133,1134
10/26/2017,USM_FY18,728x90,SJ,Veronica,,Sunjournal.com,USMFY18_SJ_728x90,Standard,Veronica_728x90,(not set),0,1161,0,930,1158,1161
10/26/2017,USM_FY18,970x90,BDN,Nate,,Bangor Daily News,USMFY18_BDN_970x90,Standard,Nate_970x90,(not set),0,25,0,13,25,25
10/26/2017,USM_FY18,970x90,DBM,Nate,,doubleclick.com/bidmanager,USMFY18_DBM_970x90,Standard,Nate_970x90,(not set),0,325,0,0,0,0
10/26/2017,USM_FY18,970x90,MaineToday,Nate,,Mainetoday.com - Portland Press Herald,USMFY18_MaineToday_970x90,Standard,Nate_970x90,(not set),0,1929,0,1160,1781,1929
10/26/2017,USM_FY18,DBM,Video,Lauren,30sec,doubleclick.com/bidmanager,USMFY18_DBM_Lauren_VIDEO,In-Stream Video,USMFY18_Lauren_30sec,http://usm.maine.edu/welcome,2,1792,0.11,182,953,958
10/26/2017,USM_FY18,DBM,Video,Nate,30sec,doubleclick.com/bidmanager,USMFY18_DBM_Lauren_VIDEO,In-Stream Video,USM_Nate_VIDEO,http://usm.maine.edu/welcome,2,1825,0.11,161,1006,1013
10/26/2017,USM_FY18,DBM,Video,Veronica,30sec,doubleclick.com/bidmanager,USMFY18_DBM_Lauren_VIDEO,In-Stream Video,USM_Veronica_VIDEO,http://usm.maine.edu/welcome,0,1942,0,166,1011,1020
10/26/2017,USM_FY18,Video,BDN,Lauren,,Bangor Daily News,USMFY18_BDN_Video,In-Stream Video,USMFY18_Lauren_30sec,http://usm.maine.edu/welcome,3,22,13.64,13,15,15
10/26/2017,USM_FY18,Video,BDN,Nate,,Bangor Daily News,USMFY18_BDN_Video,In-Stream Video,USM_Nate_VIDEO,http://usm.maine.edu/welcome,11,33,33.33,20,25,24
10/26/2017,USM_FY18,Video,BDN,Veronica,,Bangor Daily News,USMFY18_BDN_Video,In-Stream Video,USM_Veronica_VIDEO,http://usm.maine.edu/welcome,3,27,11.11,22,24,24
